Moduel 11 Exercise – Alexis Gonzalez Data Analysis Portfolio
…
set.seed(1234)

#tuning the LASSO model with a tune grid

lasso_model2 <- linear_reg(penalty = tune() , mixture = 1) %>%
  set_engine("glmnet")

lasso_wf <-workflow() %>%
  add_model(lasso_model2) %>%
  add_recipe(recipe1)

lasso_grid <-tibble(penalty = 10^seq(-5, 2, length.out = 50))
lasso_grid

# A tibble: 50 × 1
     penalty
       <dbl>
 1 0.00001  
 2 0.0000139
 3 0.0000193
 4 0.0000268
 5 0.0000373
 6 0.0000518
 7 0.0000720
 8 0.0001   
 9 0.000139 
10 0.000193 
# ℹ 40 more rows
…
