Moduel 11 Exercise – Alexis Gonzalez Data Analysis Portfolio
…
→ B | warning: 5 columns were requested but there were 3 predictors in the data. 3 will be used.

There were issues with some computations   A: x1
→ C | warning: 6 columns were requested but there were 3 predictors in the data. 3 will be used.
There were issues with some computations   A: x1
→ D | warning: 7 columns were requested but there were 3 predictors in the data. 3 will be used.
There were issues with some computations   A: x1
There were issues with some computations   A: x9   B: x8   C: x8   D: x8
There were issues with some computations   A: x22   B: x22   C: x21   D: x21
There were issues with some computations   A: x35   B: x35   C: x35   D: x34
There were issues with some computations   A: x35   B: x35   C: x35   D: x35

collect_metrics(rf_tune)

# A tibble: 98 × 8
    mtry min_n .metric .estimator  mean     n std_err .config              
   <int> <int> <chr>   <chr>      <dbl> <int>   <dbl> <chr>                
 1     1     1 rmse    standard   3.41      5  0.713  Preprocessor1_Model01
 2     1     1 rsq     standard   0.342     5  0.0613 Preprocessor1_Model01
 3     2     1 rmse    standard   3.61      5  0.704  Preprocessor1_Model02
 4     2     1 rsq     standard   0.295     5  0.0730 Preprocessor1_Model02
 5     3     1 rmse    standard   3.60      5  0.691  Preprocessor1_Model03
 6     3     1 rsq     standard   0.265     5  0.0841 Preprocessor1_Model03
 7     4     1 rmse    standard   3.58      5  0.689  Preprocessor1_Model04
 8     4     1 rsq     standard   0.275     5  0.0805 Preprocessor1_Model04
 9     5     1 rmse    standard   3.56      5  0.690  Preprocessor1_Model05
10     5     1 rsq     standard   0.278     5  0.0844 Preprocessor1_Model05
# ℹ 88 more rows
…
#  Tune the model
set.seed(123)
tune_results <- tune_grid(
  workflow3,
  resamples = folds2,
  grid = grid,
  metrics = metric_set(rmse, rsq)
)

→ A | warning: A correlation computation is required, but `estimate` is constant and has 0
               standard deviation, resulting in a divide by 0 error. `NA` will be returned.

collect_metrics(tune_results)

# A tibble: 50 × 8
   penalty mixture .metric .estimator  mean     n std_err .config              
     <dbl>   <dbl> <chr>   <chr>      <dbl> <int>   <dbl> <chr>                
 1 0.001         0 rmse    standard   3.37      5  0.600  Preprocessor1_Model01
 2 0.001         0 rsq     standard   0.346     5  0.0984 Preprocessor1_Model01
 3 0.00562       0 rmse    standard   3.37      5  0.600  Preprocessor1_Model02
 4 0.00562       0 rsq     standard   0.346     5  0.0984 Preprocessor1_Model02
 5 0.0316        0 rmse    standard   3.37      5  0.600  Preprocessor1_Model03
 6 0.0316        0 rsq     standard   0.346     5  0.0984 Preprocessor1_Model03
 7 0.178         0 rmse    standard   3.37      5  0.601  Preprocessor1_Model04
 8 0.178         0 rsq     standard   0.347     5  0.0988 Preprocessor1_Model04
 9 1             0 rmse    standard   3.38      5  0.597  Preprocessor1_Model05
10 1             0 rsq     standard   0.344     5  0.100  Preprocessor1_Model05
# ℹ 40 more rows
…
