Moduel 5 Exercise – Alexis Gonzalez Data Analysis Portfolio
…
As shown, each category contains 400 records. Then I want to check how the data is structured by Disability Status and Disability Type within each category of Response.

# Frequency table of StratificationCategory1 by Response
cdcdata_final %>%
  count(Response, StratificationCategory1, Stratification1)

# A tibble: 112 × 4
   Response StratificationCategory1 Stratification1                   n
   <chr>    <chr>                   <chr>                         <int>
 1 18-44    Disability Status       Any Disability                   50
 2 18-44    Disability Status       No Disability                    50
 3 18-44    Disability Type         Cognitive Disability             50
 4 18-44    Disability Type         Hearing Disability               50
 5 18-44    Disability Type         Independent Living Disability    50
 6 18-44    Disability Type         Mobility Disability              50
 7 18-44    Disability Type         Self-care Disability             50
 8 18-44    Disability Type         Vision Disability                50
 9 45-64    Disability Status       Any Disability                   50
10 45-64    Disability Status       No Disability                    50
# ℹ 102 more rows

So, for each category in Response, there are 100 corresponding Disability Status with half being Any Disability and the other half being No Disability. Also, the rest 300 records for the Response category correspond to Disability Type, with 50 records for each of the disability types including Cognitive Disability, Hearing Disability, Independent Living Disability, Mobility Disability, Self-care Disability, and Vision Disability. Of note, this 50 records for each category in Response should denote the summary records for the 50 states in the US. Now I want to use Georgia data as an example and check this structure.

# Frequency table of StratificationCategory1 by Response: Georgia
cdcdata_final %>%
  filter(LocationDesc=="Georgia") %>%
  count(Response, StratificationCategory1, Stratification1)

# A tibble: 112 × 4
   Response StratificationCategory1 Stratification1                   n
   <chr>    <chr>                   <chr>                         <int>
 1 18-44    Disability Status       Any Disability                    1
 2 18-44    Disability Status       No Disability                     1
 3 18-44    Disability Type         Cognitive Disability              1
 4 18-44    Disability Type         Hearing Disability                1
 5 18-44    Disability Type         Independent Living Disability     1
 6 18-44    Disability Type         Mobility Disability               1
 7 18-44    Disability Type         Self-care Disability              1
 8 18-44    Disability Type         Vision Disability                 1
 9 45-64    Disability Status       Any Disability                    1
10 45-64    Disability Status       No Disability                     1
# ℹ 102 more rows
…
