Model Fitting Exercise – Alexis Gonzalez Data Analysis Portfolio
…
tidy(lm_fit2)

# A tibble: 256 × 5
   term          estimate std.error statistic p.value
   <chr>            <dbl>     <dbl>     <dbl>   <dbl>
 1 (Intercept) -1670413.   8461763.   -0.197    0.844
 2 DOSE          109945.    506900.    0.217    0.829
 3 RATE             -13.5      241.   -0.0561   0.955
 4 AGE            69956.    217129.    0.322    0.749
 5 SEX2         -166230.    346885.   -0.479    0.634
 6 RACE2        -735484.    779340.   -0.944    0.350
 7 RACE7          -4434.     12643.   -0.351    0.727
 8 RACE88        -20669.     67099.   -0.308    0.759
 9 HT           1010639.   5013084.    0.202    0.841
10 WT             18569.     99388.    0.187    0.853
# ℹ 246 more rows
…
